map test
…
    )
  )

print(state_df)

## # A tibble: 50 x 2
##    state region      
##    <chr> <chr>       
##  1 AL    Southeast   
##  2 AK    <NA>        
##  3 AZ    West        
##  4 AR    SouthCentral
##  5 CA    California  
##  6 CO    West        
##  7 CT    Northeast   
##  8 DE    Midsouth    
##  9 FL    Southeast   
## 10 GA    Southeast   
## # … with 40 more rows
