…
avo_df
```

    ## # A tibble: 218,988 x 11
    ##     year month   day average_price total_volume type  region fruit_size
    ##    <int> <int> <int>         <dbl>        <dbl> <chr> <chr>  <chr>     
    ##  1  2015    12    27          1.33       64237. conv… Albany small     
    ##  2  2015    12    27          1.33       64237. conv… Albany small     
    ##  3  2015    12    27          1.33       64237. conv… Albany small     
    ##  4  2015    12    27          1.33       64237. conv… Albany small     
    ##  5  2015    12    27          1.33       64237. conv… Albany large     
    ##  6  2015    12    27          1.33       64237. conv… Albany large     
    ##  7  2015    12    27          1.33       64237. conv… Albany large     
    ##  8  2015    12    27          1.33       64237. conv… Albany large     
    ##  9  2015    12    27          1.33       64237. conv… Albany extra_lar…
    ## 10  2015    12    27          1.33       64237. conv… Albany extra_lar…
    ## # … with 218,978 more rows, and 3 more variables: quantity_sold <dbl>,
    ## #   bag_type <chr>, bag_sold <dbl>
…
gdp_df
```

    ## # A tibble: 180 x 3
    ##    area          year    gdp
    ##    <chr>         <chr> <dbl>
    ##  1 United States 2015  50301
    ##  2 United States 2016  50660
    ##  3 United States 2017  51337
    ##  4 Alabama       2015  36818
    ##  5 Alabama       2016  37158
    ##  6 Alabama       2017  37508
    ##  7 Alaska        2015  65971
    ##  8 Alaska        2016  63304
    ##  9 Alaska        2017  63610
    ## 10 Arizona       2015  38787
    ## # … with 170 more rows
…
